{
    "KPlugin": {
        "Description": "Automatically applies settings to GNOME/GTK applications",
        "Description[ca@valencia]": "Aplica automàticament la configuració a les aplicacions GNOME/GTK",
        "Description[ca]": "Aplica automàticament la configuració a les aplicacions GNOME/GTK",
        "Description[cs]": "Automaticky aplikuje nastavení na aplikace GNOME/GTK",
        "Description[en_GB]": "Automatically applies settings to GNOME/GTK applications",
        "Description[es]": "Aplica preferencias automáticamente a las aplicaciones de GNOME/GTK",
        "Description[et]": "Seadistuste automaatne rakendamine GNOME/GTK rakendustele",
        "Description[eu]": "GNOME/GTK aplikazioei ezarpenak automatikoki ezartzen dizkie",
        "Description[fi]": "Ottaa asetukset automaattisesti käyttöön Gnome/Gtk-sovelluksissa",
        "Description[fr]": "Applique automatiquement les paramètres aux applications GNOME/GTK",
        "Description[id]": "Secara otomatis menerapkan pengaturan ke aplikasi-aplikasi GNOME/GTK",
        "Description[it]": "Applica automaticamente le impostazioni alle applicazioni GNOME/GTK",
        "Description[ko]": "자동으로 그놈/GTK 프로그램에 설정 적용",
        "Description[lt]": "Automatiškai taiko nuostatas GNOME/GTK programoms",
        "Description[nl]": "Automatisch toegepaste instellingen op GNOME/GTK toepassingen",
        "Description[nn]": "Tek automatisk i bruk innstillingane på GNOME-/GTK-program",
        "Description[pt]": "Aplica automaticamente as configurações nas aplicações do GNOME/GTK",
        "Description[pt_BR]": "Aplica automaticamente as configurações aos aplicativos GNOME/GTK",
        "Description[ru]": "Автоматическое применение изменений для приложений GNOME/GTK",
        "Description[sk]": "Automaticky použije nastavenia pre GNOME/GTK aplikácie",
        "Description[sl]": "Samodejno uveljavi nastavitve za vse programe GNOME/GTK",
        "Description[sv]": "Verkställer automatiskt inställningar för GNOME/GTK-program",
        "Description[uk]": "Автоматично застосовує параметри до програм GNOME/GTK",
        "Description[x-test]": "xxAutomatically applies settings to GNOME/GTK applicationsxx",
        "Description[zh_CN]": "自动将设置应用到 GNOME/GTK 应用",
        "Description[zh_TW]": "自動套用設定到 GNOME/GTK 應用程式",
        "Icon": "gtkconfig",
        "Name": "GNOME/GTK Settings Synchronization Service",
        "Name[ca@valencia]": "Servei de sincronització de la configuració del GNOME/GTK",
        "Name[ca]": "Servei de sincronització de la configuració del GNOME/GTK",
        "Name[cs]": "Služba synchronizace nastavení GNOME/GTK",
        "Name[en_GB]": "GNOME/GTK Settings Synchronisation Service",
        "Name[es]": "Servicio de sincronización de preferencias de GNOME/GTK",
        "Name[et]": "GNOME/GTK seadistuste sünkroonimise teenus",
        "Name[eu]": "GNOME/GTK ezarpenak sinkronizatzeko zerbitzua",
        "Name[fi]": "Gnome/Gtk-asetussynkronointipalvelu",
        "Name[fr]": "Service de synchronisation des paramètres GNOME/GTK",
        "Name[id]": "Layanan Sinkronisasi Pengaturan GNOME/GTK",
        "Name[it]": "Servizio di sincronizzazione delle impostazioni GNOME/GTK",
        "Name[ko]": "그놈/GTK 설정 동기화 서비스",
        "Name[lt]": "GNOME/GTK nuostatų sinchronizavimo tarnyba",
        "Name[nl]": "GNOME/GTK instellingen synchronisatieservice",
        "Name[nn]": "GNOME/GTK-oppsettsynkronisering",
        "Name[pt]": "Serviço de Sincronização das Configurações do GNOME/GTK",
        "Name[pt_BR]": "Configuração do serviço de sincronização GNOME/GTK",
        "Name[ru]": "Служба синхронизации параметров GNOME/GTK",
        "Name[sk]": "Služba na synchronizáciu nastavení GNOME/GTK",
        "Name[sl]": "Nastavitve storitve sinhronizacije GNOME/GTK",
        "Name[sv]": "Synkroniseringstjänst av GNOME/GTK inställningar",
        "Name[uk]": "Служба синхронізації параметрів GNOME/GTK",
        "Name[x-test]": "xxGNOME/GTK Settings Synchronization Servicexx",
        "Name[zh_CN]": "GNOME/GTK 设置同步服务",
        "Name[zh_TW]": "GNOME/GTK 設定同步服務",
        "ServiceTypes": [
            "KDEDModule"
        ],
        "Version": "0.1"
    },
    "X-KDE-Kded-autoload": true,
    "X-KDE-Kded-load-on-demand": false,
    "X-KDE-Kded-phase": 1
}
